73.0.3683.88
74.0.3729.28
73.0.3683.86
73.0.3683.75
73.0.3683.56
73.0.3683.39
73.0.3683.27
73.0.3683.20
72.0.3626.81
72.0.3626.71
72.0.3626.64
71.0.3578.80
70.0.3538.77
69.0.3497.92
68.0.3440.84
67.0.3396.79
65.0.3325.181
64.0.3282.140
63.0.3239.108
62.0.3202.75
61.0.3163.79
60.0.3112.78
59.0.3071.86
58.0.3029.96
57.0.2987.133
56.0.2924.87
55.0.2883.75
54.0.2840.71
53.0.2785.116
52.0.2743.116
51.0.2704.84
50.0.2661.75
49.0.2623.75
48.0.2564.97
66.0.3359.181